REGIAO;UF;ESTACAO;CODIGO;LATITUDE;LONGITUDE;ALTITUDE
CO;DF;BRASILIA;A001;-15.78944444;-47.92583332;1159.54
CO;GO;GOIANIA;A002;-16.64277777;-49.21999999;770.0
CO;GO;MORRINHOS;A003;-17.71666667;-49.1;771.42
S;RS;SANTA MARIA;A803;-29.70833333;-53.70361111;95.0
S;RS;SANTANA DO LIVRAMENTO;A804;-30.84249999;-55.61277777;196.0
S;PR;FOZ DO IGUACU;A846;-25.60194444;-54.48305554;242.0
N;RR;BOA VISTA;A135;2.81694443;-60.69083333;94.0
N;PA;BELEM;A201;-1.41027777;-48.43833333;24.0
N;PA;CASTANHAL;A202;-1.30083333;-47.93083332;65.0
